rna_seq_tutorial
…
# You can also create a function to do this if you have a large amount of files 

### Join all gene count files into one data frame
feature_counts <- join_all(list(count_1, count_3, count_5, count_7, count_2, count_4, 
                       count_6, count_8), by = "gene_id", type = "full")
# Write out table for later analysis
write.table(feature_counts, file = "feature_counts.txt", quote=FALSE, sep='\t', row.names = FALSE)

# Read in feature counts 
deseq_counts <- read.table("feature_counts.txt", header=TRUE, row.names=1) 
as_tibble(deseq_counts)

## # A tibble: 66,023 x 8
##    LC_C1_nor LC_C2_nor LC_C3_nor LC_C5_nor LC_C1 LC_C2 LC_C3 LC_C5
##        <int>     <int>     <int>     <int> <int> <int> <int> <int>
##  1         0         0         0         0     0     0     0     0
##  2         0         0         0         0     0     0     0     0
##  3         0         0         0         0     0     0     0     0
##  4         0         0         0         0     0     0     0     0
##  5         0         0         0         0     0     0     0     0
##  6         0         0         0         0     0     0     0     0
##  7         0         0         0         0     0     0     0     0
##  8         0         0         0         0     0     0     0     0
##  9         0         0         0         0     0     0     0     0
## 10         0         0         0         0     0     0     0     0
## #  with 66,013 more rows
…
#### Heatmaps with top variable genes

# Normal vs. Tumor 
# Transform with regularized log
rld <- rlog(deseq_analysis)
#assay(rld)

# Order genes then filter for the top 25
top_genes <- head(order(rowMeans(assay(rld)), decreasing = TRUE), 30)
as_tibble(top_genes)

## Warning: Calling `as_tibble()` on a vector is discouraged, because the behavior is likely to change in the future. Use `tibble::enframe(name = NULL)` instead.
## This warning is displayed once per session.

## # A tibble: 30 x 1
##    value
##    <int>
##  1 29442
##  2  3634
##  3  3636
##  4 29454
##  5 29430
##  6 16674
##  7 27343
##  8 29458
##  9 29276
## 10 29449
## #  with 20 more rows

deseq_genes <- assay(rld)[top_genes, ]

# Calculate distances from the mean for clearer heatmap
deseq_genes <- (deseq_genes - rowMeans(deseq_genes))

# Connect to ensemble database and label gene ids with gene symbol
mart <- useMart("ENSEMBL_MART_ENSEMBL","hsapiens_gene_ensembl") 
gene_symbol <- getBM(c("hgnc_symbol","ensembl_gene_id"), "ensembl_gene_id", row.names(deseq_genes), mart)

row.names(deseq_genes)[match(gene_symbol[,2], row.names(deseq_genes))] <- gene_symbol[,1]

as_tibble(deseq_genes)

## # A tibble: 30 x 8
##    LC_C1_nor LC_C2_nor LC_C3_nor LC_C5_nor   LC_C1   LC_C2  LC_C3  LC_C5
##        <dbl>     <dbl>     <dbl>     <dbl>   <dbl>   <dbl>  <dbl>  <dbl>
##  1   -0.227    -0.166    -0.251     -0.300  0.284   0.307   0.172 0.181 
##  2    0.392     0.277     0.363      0.263 -2.10   -0.0445  0.127 0.719 
##  3    0.527     0.445     0.488      0.279 -2.42   -0.0617  0.182 0.560 
##  4   -0.378    -0.0726   -0.122     -0.406  0.340   0.154   0.262 0.222 
##  5   -0.220    -0.203    -0.275     -0.270  0.258   0.110   0.353 0.246 
##  6    0.297     0.0860    0.375      0.284 -2.41    0.139   0.992 0.241 
##  7    0.777     0.524     1.02       0.720 -2.98   -0.922   0.852 0.0124
##  8   -0.125     0.109     0.129     -0.303  0.188  -0.0559 -0.154 0.212 
##  9   -0.0773   -0.0794   -0.0308    -0.287 -0.0937  0.0410  0.435 0.0931
## 10   -0.298    -0.0809   -0.230     -0.258  0.0694  0.187   0.441 0.169 
## #  with 20 more rows
…
colnames(top_30)[1] <- "genes"

as_tibble(top_30)

## # A tibble: 30 x 7
##    genes       baseMean log2FoldChange lfcSE  stat   pvalue     padj
##    <chr>          <dbl>          <dbl> <dbl> <dbl>    <dbl>    <dbl>
##  1 IGLV3-21       277.            4.57 0.322 14.2  1.02e-45 2.44e-41
##  2 MMP9           315.            5.24 0.455 11.5  1.18e-30 1.40e-26
##  3 IGHV3-43        96.0           3.44 0.326 10.6  4.66e-26 3.71e-22
##  4 IGHG4         3015.            4.87 0.464 10.5  9.66e-26 5.76e-22
##  5 TNFRSF13C       62.5           4.24 0.429  9.89 4.82e-23 2.30e-19
##  6 SLC12A5-AS1     93.4           5.52 0.579  9.53 1.56e-21 6.20e-18
##  7 SPP1          2239.            6.70 0.708  9.46 2.95e-21 1.01e-17
##  8 MS4A1          281.            4.25 0.451  9.42 4.67e-21 1.39e-17
##  9 CD79A          106.            3.46 0.369  9.39 5.93e-21 1.57e-17
## 10 CXCL14         392.            4.85 0.522  9.29 1.56e-20 3.72e-17
## #  with 20 more rows

top_30$expression <- NA
top_30$expression[top_30$log2FoldChange > 0 ] <- "up"
top_30$expression[top_30$log2FoldChange < 0 ] <- "down"
as_tibble(top_30)

## # A tibble: 30 x 8
##    genes   baseMean log2FoldChange lfcSE  stat   pvalue     padj expression
##    <chr>      <dbl>          <dbl> <dbl> <dbl>    <dbl>    <dbl> <chr>     
##  1 IGLV3-    277.            4.57 0.322 14.2  1.02e-45 2.44e-41 up        
##  2 MMP9       315.            5.24 0.455 11.5  1.18e-30 1.40e-26 up        
##  3 IGHV3-     96.0           3.44 0.326 10.6  4.66e-26 3.71e-22 up        
##  4 IGHG4     3015.            4.87 0.464 10.5  9.66e-26 5.76e-22 up        
##  5 TNFRSF     62.5           4.24 0.429  9.89 4.82e-23 2.30e-19 up        
##  6 SLC12A     93.4           5.52 0.579  9.53 1.56e-21 6.20e-18 up        
##  7 SPP1      2239.            6.70 0.708  9.46 2.95e-21 1.01e-17 up        
##  8 MS4A1      281.            4.25 0.451  9.42 4.67e-21 1.39e-17 up        
##  9 CD79A      106.            3.46 0.369  9.39 5.93e-21 1.57e-17 up        
## 10 CXCL14     392.            4.85 0.522  9.29 1.56e-20 3.72e-17 up        
## #  with 20 more rows
…
